CONTAINER Ovoncdefpoint
{
	NAME Ovoncdefpoint;
	INCLUDE Obase;

	GROUP ID_OBJECTPROPERTIES
	{
		REAL VONC_DEFPOINT_INTENSITE { UNIT PERCENT; MINSLIDER 0.0; MAXSLIDER 100.0; CUSTOMGUI REALSLIDER; }
		
		LONG VONC_DEFPOINT_MODE {
			CYCLE {
				VONC_DEFPOINT_MODE_PER;
				VONC_DEFPOINT_MODE_PRE;
				VONC_DEFPOINT_MODE_EPR;
				VONC_DEFPOINT_MODE_ERP;
				VONC_DEFPOINT_MODE_RPE;
				VONC_DEFPOINT_MODE_REP;
			}
		}
		
		VECTOR VONC_DEFPOINT_POSITION		{ UNIT METER; STEP 0.1; }
		VECTOR VONC_DEFPOINT_ECHELLE		{ UNIT PERCENT; }
		VECTOR VONC_DEFPOINT_ROTATION		{ UNIT DEGREE; STEP 0.1; }
		
		SEPARATOR { LINE; }
		
		GROUP {
			STATICTEXT VONC_DEFPOINT_INFO { }
		}
		
	}
}